Date,Transaction Type,Num,Client,Product/Service,Memo/Description,Qty, Rate , Amount ,Type of Revenue,Type of Customer,Start Date,End Date,Product Class
6/17/2016,type1,1,Ophthalmology Practice,widget1,,1,11000,11000,revrec,new,6/19/2016,6/18/2017,widget 1
7/13/2016,type2,2,Cardiology Practice,widget2,,3,700,2100,revrec,new,7/13/2016,7/12/2017,widget 2
8/13/2016,type3,3,Ophthalmology Practice,widget3,,1,23000,23000,revrec,existing,8/12/2016,5/7/2017,widget 3
8/18/2016,type4,4,Cardiology Practice,widget4,,1,4500,4500,revrec,existing,8/14/2016,3/12/2017,widget 4
10/11/2016,type5,5,Cardiology Practice,widget5,,1,1250,1250,revrec,existing,10/15/2016,3/16/2017,widget 5
11/22/2017,type6,6,Ophthalmology Practice,widget6,,1,3000,3000,revrec,existing,11/23/2016,11/24/2017,widget 6
12/11/2016,type7,7,Ophthalmology Practice,widget7,,1,750,750,booking,existing,12/17/2016,12/18/2016,widget 7
8/01/2016,type14,21,Cardiology Practice,widget14,,1,1122,1122,booking,existing,8/01/2016,8/01/2016,widget 14
9/01/2016,type14,22,Neuro Practice,widget14,,1,560,560,booking,booking,9/01/2016,9/01/2016,widget 14
10/01/2016,type14,23,Ophthalmology Practice,widget14,,1,975,975,booking,existing,10/01/2016,10/01/2016,widget 14
4/11/2017,type8,8,Gastro Practice,widget8,,1,13500,13500,revrec,new,4/13/2017,4/12/2018,widget 8
4/12/2017,type9,9,Ophthalmology Practice,widget9,,1,350,350,booking,existing,4/14/2017,4/15/2017,widget 9
5/10/2017,type10,10,Cardiology Practice,widget10,,1,670,670,booking,existing,5/13/2017,5/15/2017,widget 10
6/10/2017,type11,11,Neuro Practice,widget11,,1,15000,15000,revrec,new,6/11/2017,6/10/2018,widget 11
6/24/2017,type12,12,Gastro Practice,widget12,,1,2300,2300,revrec,existing,6/22/2017,12/21/2017,widget 12
6/11/2017,type13,13,Gastro Practice,widget13,,1,440,440,booking,existing,6/12/2017,6/13/2017,widget 13
7/10/2017,type14,14,Neuro Practice,widget14,,1,880,880,booking,existing,7/11/2017,7/12/2017,widget 14
7/31/2017,type14,15,Cardiology Practice,widget14,,1,880,880,booking,existing,7/31/2017,7/31/2017,widget 14
8/31/2017,type14,16,Neuro Practice,widget14,,1,880,880,booking,booking,8/31/2017,8/31/2017,widget 14
9/30/2017,type14,17,Ophthalmology Practice,widget14,,1,900,900,booking,existing,9/30/2017,9/30/2017,widget 14
7/01/2017,type14,18,Cardiology Practice,widget14,,1,413,413,booking,existing,7/01/2017,7/02/2017,widget 14
8/01/2017,type14,19,Neuro Practice,widget14,,1,350,350,booking,booking,8/01/2017,8/02/2017,widget 14
9/01/2017,type14,20,Ophthalmology Practice,widget14,,1,1100,1100,booking,existing,9/01/2017,9/02/2017,widget 14
